Lab 02: Data and Reproducibility
…
arrange sorts your data frame by a particular column (numerically, or alphabetically)

starwars |> 
  arrange(birth_year)

# A tibble: 87 x 14
   name     height  mass hair_color skin_color eye_color birth_year sex   gender
   <chr>     <int> <dbl> <chr>      <chr>      <chr>          <dbl> <chr> <chr> 
 1 Wicket ~     88  20   brown      brown      brown            8   male  mascu~
 2 IG-88       200 140   none       metal      red             15   none  mascu~
 3 Luke Sk~    172  77   blond      fair       blue            19   male  mascu~
 4 Leia Or~    150  49   brown      light      brown           19   fema~ femin~
 5 Wedge A~    170  77   brown      fair       hazel           21   male  mascu~
 6 Plo Koon    188  80   none       orange     black           22   male  mascu~
 7 Biggs D~    183  84   black      light      brown           24   male  mascu~
 8 Han Solo    180  80   brown      fair       brown           29   male  mascu~
 9 Lando C~    177  79   black      dark       brown           31   male  mascu~
10 Boba Fe~    183  78.2 black      fair       brown           31.5 male  mascu~
# i 77 more rows
# i 5 more variables: homeworld <chr>, species <chr>, films <list>,
#   vehicles <list>, starships <list>

We can also arrange items in descending order using arrange(desc()).

starwars |> 
  arrange(desc(birth_year))

# A tibble: 87 x 14
   name     height  mass hair_color skin_color eye_color birth_year sex   gender
   <chr>     <int> <dbl> <chr>      <chr>      <chr>          <dbl> <chr> <chr> 
 1 Yoda         66    17 white      green      brown            896 male  mascu~
 2 Jabba D~    175  1358 <NA>       green-tan~ orange           600 herm~ mascu~
 3 Chewbac~    228   112 brown      unknown    blue             200 male  mascu~
 4 C-3PO       167    75 <NA>       gold       yellow           112 none  mascu~
 5 Dooku       193    80 white      fair       brown            102 male  mascu~
 6 Qui-Gon~    193    89 brown      fair       blue              92 male  mascu~
 7 Ki-Adi-~    198    82 white      pale       yellow            92 male  mascu~
 8 Finis V~    170    NA blond      fair       blue              91 male  mascu~
 9 Palpati~    170    75 grey       pale       yellow            82 male  mascu~
10 Cliegg ~    183    NA brown      fair       blue              82 male  mascu~
# i 77 more rows
# i 5 more variables: homeworld <chr>, species <chr>, films <list>,
#   vehicles <list>, starships <list>
…
Use commas to select multiple columns out of a data frame. (You can also use “first:last” for consecutive columns). Deselect a column with “-”.

starwars |> 
  select(name:skin_color, species, -height)

# A tibble: 87 x 5
   name                mass hair_color    skin_color  species
   <chr>              <dbl> <chr>         <chr>       <chr>  
 1 Luke Skywalker        77 blond         fair        Human  
 2 C-3PO                 75 <NA>          gold        Droid  
 3 R2-D2                 32 <NA>          white, blue Droid  
 4 Darth Vader          136 none          white       Human  
 5 Leia Organa           49 brown         light       Human  
 6 Owen Lars            120 brown, grey   light       Human  
 7 Beru Whitesun Lars    75 brown         light       Human  
 8 R5-D4                 32 <NA>          white, red  Droid  
 9 Biggs Darklighter     84 black         light       Human  
10 Obi-Wan Kenobi        77 auburn, white fair        Human  
# i 77 more rows

You can also rename some (or all) of your selected variables in place.

starwars |>
  select(alias=name, planet=homeworld) 

# A tibble: 87 x 2
   alias              planet  
   <chr>              <chr>   
 1 Luke Skywalker     Tatooine
 2 C-3PO              Tatooine
 3 R2-D2              Naboo   
 4 Darth Vader        Tatooine
 5 Leia Organa        Alderaan
 6 Owen Lars          Tatooine
 7 Beru Whitesun Lars Tatooine
 8 R5-D4              Tatooine
 9 Biggs Darklighter  Tatooine
10 Obi-Wan Kenobi     Stewjon 
# i 77 more rows
…
starwars_rename<-starwars |>
  rename(alias=name) 
names(starwars_rename)

 [1] "alias"      "height"     "mass"       "hair_color" "skin_color"
 [6] "eye_color"  "birth_year" "sex"        "gender"     "homeworld" 
[11] "species"    "films"      "vehicles"   "starships" 

The select(contains(PATTERN)) option provides a nice shortcut in relevant cases.

starwars |> 
  select(name, contains("color"))

# A tibble: 87 x 4
   name               hair_color    skin_color  eye_color
   <chr>              <chr>         <chr>       <chr>    
 1 Luke Skywalker     blond         fair        blue     
 2 C-3PO              <NA>          gold        yellow   
 3 R2-D2              <NA>          white, blue red      
 4 Darth Vader        none          white       yellow   
 5 Leia Organa        brown         light       brown    
 6 Owen Lars          brown, grey   light       blue     
 7 Beru Whitesun Lars brown         light       blue     
 8 R5-D4              <NA>          white, red  red      
 9 Biggs Darklighter  black         light       brown    
10 Obi-Wan Kenobi     auburn, white fair        blue-gray
# i 77 more rows
…
You can create new columns from scratch, or (more commonly) as transformations of existing columns.

starwars |> 
  select(name, birth_year) |>
  mutate(dog_years = birth_year * 7) |>
  mutate(comment = paste0(name, " is ", dog_years, " in dog years."))

# A tibble: 87 x 4
   name               birth_year dog_years comment                              
   <chr>                   <dbl>     <dbl> <chr>                                
 1 Luke Skywalker           19        133  Luke Skywalker is 133 in dog years.  
 2 C-3PO                   112        784  C-3PO is 784 in dog years.           
 3 R2-D2                    33        231  R2-D2 is 231 in dog years.           
 4 Darth Vader              41.9      293. Darth Vader is 293.3 in dog years.   
 5 Leia Organa              19        133  Leia Organa is 133 in dog years.     
 6 Owen Lars                52        364  Owen Lars is 364 in dog years.       
 7 Beru Whitesun Lars       47        329  Beru Whitesun Lars is 329 in dog yea~
 8 R5-D4                    NA         NA  R5-D4 is NA in dog years.            
 9 Biggs Darklighter        24        168  Biggs Darklighter is 168 in dog year~
10 Obi-Wan Kenobi           57        399  Obi-Wan Kenobi is 399 in dog years.  
# i 77 more rows

Note: mutate is order aware. So you can chain multiple mutates in a single call.

starwars |> 
  select(name, birth_year) |>
  mutate(
    dog_years = birth_year * 7,     # Separate with a comma
    comment = paste0(name, " is ", dog_years, " in dog years.")
    )

# A tibble: 87 x 4
   name               birth_year dog_years comment                              
   <chr>                   <dbl>     <dbl> <chr>                                
 1 Luke Skywalker           19        133  Luke Skywalker is 133 in dog years.  
 2 C-3PO                   112        784  C-3PO is 784 in dog years.           
 3 R2-D2                    33        231  R2-D2 is 231 in dog years.           
 4 Darth Vader              41.9      293. Darth Vader is 293.3 in dog years.   
 5 Leia Organa              19        133  Leia Organa is 133 in dog years.     
 6 Owen Lars                52        364  Owen Lars is 364 in dog years.       
 7 Beru Whitesun Lars       47        329  Beru Whitesun Lars is 329 in dog yea~
 8 R5-D4                    NA         NA  R5-D4 is NA in dog years.            
 9 Biggs Darklighter        24        168  Biggs Darklighter is 168 in dog year~
10 Obi-Wan Kenobi           57        399  Obi-Wan Kenobi is 399 in dog years.  
# i 77 more rows
…
# A tibble: 2 x 4
  name             height tall1 tall2
  <chr>             <int> <lgl> <chr>
1 Luke Skywalker      172 FALSE Short
2 Anakin Skywalker    188 TRUE  Tall 

Lastly, combining mutate with across allows you to easily perform the same operation on a subset of variables.

starwars |> 
  select(name:eye_color) |> 
  mutate(across(where(is.character), toupper))

# A tibble: 87 x 6
   name               height  mass hair_color    skin_color  eye_color
   <chr>               <int> <dbl> <chr>         <chr>       <chr>    
 1 LUKE SKYWALKER        172    77 BLOND         FAIR        BLUE     
 2 C-3PO                 167    75 <NA>          GOLD        YELLOW   
 3 R2-D2                  96    32 <NA>          WHITE, BLUE RED      
 4 DARTH VADER           202   136 NONE          WHITE       YELLOW   
 5 LEIA ORGANA           150    49 BROWN         LIGHT       BROWN    
 6 OWEN LARS             178   120 BROWN, GREY   LIGHT       BLUE     
 7 BERU WHITESUN LARS    165    75 BROWN         LIGHT       BLUE     
 8 R5-D4                  97    32 <NA>          WHITE, RED  RED      
 9 BIGGS DARKLIGHTER     183    84 BLACK         LIGHT       BROWN    
10 OBI-WAN KENOBI        182    77 AUBURN, WHITE FAIR        BLUE-GRAY
# i 77 more rows
…
Particularly useful in combination with the group_by command.

starwars |> 
  group_by(species) |> 
  summarize(mean_height = mean(height))

# A tibble: 38 x 2
   species   mean_height
   <chr>           <dbl>
 1 Aleena            79 
 2 Besalisk         198 
 3 Cerean           198 
 4 Chagrian         196 
 5 Clawdite         168 
 6 Droid             NA 
 7 Dug              112 
 8 Ewok              88 
 9 Geonosian        183 
10 Gungan           209.
# i 28 more rows

Notice that some of these summarized values are missing. If we want to ignore missing values, use na.rm = T:

## Much better
starwars |> 
  group_by(species) |> 
  summarize(mean_height = mean(height, na.rm = T))

# A tibble: 38 x 2
   species   mean_height
   <chr>           <dbl>
 1 Aleena            79 
 2 Besalisk         198 
 3 Cerean           198 
 4 Chagrian         196 
 5 Clawdite         168 
 6 Droid            131.
 7 Dug              112 
 8 Ewok              88 
 9 Geonosian        183 
10 Gungan           209.
# i 28 more rows

The same across-based workflow that we saw with mutate a few slides back also works with summarize.

starwars |> 
  group_by(species) |>
  summarize(across(where(is.numeric), mean))

# A tibble: 38 x 4
   species   height  mass birth_year
   <chr>      <dbl> <dbl>      <dbl>
 1 Aleena       79     15         NA
 2 Besalisk    198    102         NA
 3 Cerean      198     82         92
 4 Chagrian    196     NA         NA
 5 Clawdite    168     55         NA
 6 Droid        NA     NA         NA
 7 Dug         112     40         NA
 8 Ewok         88     20          8
 9 Geonosian   183     80         NA
10 Gungan      209.    NA         NA
# i 28 more rows

The same across-based workflow that we saw with mutate a few slides back also works with summarize. Though to add arguments, we have to use an anonymous function:

starwars |> 
  group_by(species) |>
  summarize(across(where(is.numeric), ~ mean(.x, na.rm=T)))

# A tibble: 38 x 4
   species   height  mass birth_year
   <chr>      <dbl> <dbl>      <dbl>
 1 Aleena       79   15        NaN  
 2 Besalisk    198  102        NaN  
 3 Cerean      198   82         92  
 4 Chagrian    196  NaN        NaN  
 5 Clawdite    168   55        NaN  
 6 Droid       131.  69.8       53.3
 7 Dug         112   40        NaN  
 8 Ewok         88   20          8  
 9 Geonosian   183   80        NaN  
10 Gungan      209.  74         52  
# i 28 more rows

Other dplyr goodies

ungroup: For ungrouping after using group_by. - Use after doing your grouped summarize or mutate operation, or everything else you do will be super slow.

slice: Subset rows by position rather than filtering by values. - E.g. starwars |> slice(1:10)

pull: Extract a column from as a data frame as a vector or scalar. - E.g. starwars |> filter(sex=="female") |> pull(height)

distinct and count: List unique values, with or without their number of appearances. - E.g. starwars |> distinct(species), or starwars |> count(species) - count is equivalent to group_by and summarize with n():

starwars |> group_by(species) |> summarize(n = n())

# A tibble: 38 x 2
   species       n
   <chr>     <int>
 1 Aleena        1
 2 Besalisk      1
 3 Cerean        1
 4 Chagrian      1
 5 Clawdite      1
 6 Droid         6
 7 Dug           1
 8 Ewok          1
 9 Geonosian     1
10 Gungan        3
# i 28 more rows
…
